{
  "project_info": {
    "project_number": "653542296168",
    "project_id": "vb-android"
  },
  "client": [
    {
      "client_info": {
        "mobilesdk_app_id": "1:653542296168:android:5daee2c7b4c063cd",
        "android_client_info": {
          "package_name": "android.vb.com.vb"
        }
      },
      "oauth_client": [
        {
          "client_id": "653542296168-uj6tt8948fi4jrh3ur2kabk8gaj2kr00.apps.googleusercontent.com",
          "client_type": 3
        },
        {
          "client_id": "653542296168-98t14ibejtqik3u4uhrhbgggjvcanlt8.apps.googleusercontent.com",
          "client_type": 1,
          "android_info": {
            "package_name": "android.vb.com.vb",
            "certificate_hash": "126015a51ddd1dbd87457aaa8c38ce22fedfdda0"
          }
        }
      ],
      "api_key": [
        {
          "current_key": "AIzaSyCyZZp7hqQf6GWF0-WB_5FXfg4dCXLce9g"
        }
      ],
      "services": {
        "analytics_service": {
          "status": 1
        },
        "appinvite_service": {
          "status": 1,
          "other_platform_oauth_client": []
        },
        "ads_service": {
          "status": 1
        }
      }
    }
  ],
  "configuration_version": "1"
}